\relax 
\@writefile{toc}{\contentsline {section}{\numberline {1}Introduci\IeC {\'o}n}{1}}
\@writefile{toc}{\contentsline {section}{\numberline {2}Interfaz de prueba \textit  {\texttt  {client-cli}}}{1}}
\@writefile{toc}{\contentsline {section}{\numberline {3}Script de pruebas masivas \textit  {\texttt  {logdb-tester.pl}}}{2}}
